iop=-6 jop=-2 igeom=1 iform=1 nsav13=2 +
iprint=1 mprint=1 +
kci=5 ioutci=1 +
movo=-5 ici1=3 ici2=3 jci1=3 jci2=3 levexc=2 +
ipubo=1  ktrial=11 imomap=3 + 
mminp=0 numatm=0  +
mmcoup=0 mmskip=0 nsav15=3 icross=2 mapthr=70 
 
