SURFACE HOPPING AT t=     1.000, STEP 2(22)
   Velocity before hopping
      0.000064266812     -0.000154738774      0.000119948493
     -0.000081836630      0.000170658609     -0.000166333346
     -0.001460049341     -0.000825636573      0.001058608472
     -0.000235715194      0.003994200235     -0.000507127815
      0.001685245776     -0.003737997486      0.000145873966
      0.000282427510     -0.000009210255      0.000254220760
 
   Velocity after hopping
      0.000059301462     -0.000160806430      0.000183825699
     -0.000068973966      0.000198131858     -0.000278296003
     -0.001624270842     -0.000848218718      0.001025206926
     -0.000041496149      0.004013490492     -0.000512143667
      0.001765372480     -0.004006099654      0.000403927995
      0.000088205682      0.000019386877      0.000480167433
 ================================================================================
 
